cat1;cat2;cat3;id;caption;stepsize;min;max
physical:simulation;;;activated;simulate;;;
physical:simulation;;;massScale;mass scale;0.2;-50;50
physical:simulation;;;damping;damping;0.1;0;1
physical:simulation;;;inertiaScale;inertia scale;0.1;0;1
physical:simulation;;;inertiaLimit;inertia limit;0.1;0;100
physical:simulation;;;gravityDir;gravity direction;;;
physical:simulation;;;windScaler;wind scaler;0.1;0;5
physical:simulation;;;windNoise;wind noise;0.1;0;1
physical:simulation;;;useCollision;use collision;;;
physical:simulation;;;backStopRadius;backstop radius;0.1;0;1
physical:simulation;;;friction;friction;0.1;0;10
physical:stiffness;;;interactionStiffness;interaction stiffness;0.1;0;1
physical:stiffness;;;interactionStiffnessCurve;interaction stiffness curve;;;
physical:stiffness;;;stiffness;stiffness;0.1;0;1
physical:stiffness;;;stiffnessTex;stiffness texture;;;
physical:stiffness;;;stiffnessTexChannel;stiffness texture channel;;;
physical:stiffness;;;stiffnessCurve;stiffness curve;;;
physical:stiffness;;;stiffnessStrength;strength;0.1;0;1
physical:stiffness;;;stiffnessStrengthCurve;stiffness strength curve;;;
physical:stiffness;;;stiffnessDamping;stiffness damping;0.1;0;1
physical:stiffness;;;stiffnessDampingCurve;stiffness damping curve;;;
physical:stiffness;;;rootStiffness;root stiffness;0.1;0;1
physical:stiffness;;;rootStiffnessTex;root stiffness texture;;;
physical:stiffness;;;rootStiffnessTexChannel;root stiffness texture channel;;;
physical:stiffness;;;tipStiffness;tip stiffness;0.1;0;1
physical:stiffness;;;bendStiffness;bend stiffness;0.1;0;1
physical:stiffness;;;bendStiffnessCurve;bend stiffness curve;;;
physical:stiffness;;;stiffnessStartDistance;stiffness startdistance;0.2;0;100
physical:stiffness;;;stiffnessEndDistance;stiffness enddistance;0.1;0;100
physical:stiffness;;;pinStiffness;pin stiffness;0.1;0;1
physical:volume;;;density;density;0.2;0;10
physical:volume;;;densityTex;density texture;;;
physical:volume;;;densityTexChannel;density texture channel;;;
physical:volume;;;usePixelDensity;use pixel density;;;
physical:volume;;;lengthScale;length scale;0.1;0;1
physical:volume;;;lengthTex;length texture;;;
physical:volume;;;lengthTexChannel;length texture channel;;;
physical:volume;;;lengthNoise;length noise;0.1;0;1
physical:strand width;;;width;width;0.1;0;10
physical:strand width;;;widthRootScale;width root scale;0.1;0;1
physical:strand width;;;rootWidthTex;root width texture;;;
physical:strand width;;;rootWidthTexChannel;root width texture channel;;;
physical:strand width;;;widthTipScale;width tip scale;0.1;0;1
physical:strand width;;;tipWidthTex;tip width texture;;;
physical:strand width;;;tipWidthTexChannel;tip width texture channel;;;
physical:strand width;;;widthNoise;width noise;0.1;0;1
physical:clumping;;;clumpScale;clump scale;0.1;0;10
physical:clumping;;;clumpScaleTex;clump scale texture;;;
physical:clumping;;;clumpScaleTexChannel;clump scale texture channel;;;
physical:clumping;;;clumpRoundness;clump roundness;0.1;0.01;10
physical:clumping;;;clumpRoundnessTex;clump roundness texture;;;
physical:clumping;;;clumpRoundnessTexChannel;clump roundness texture channel;;;
physical:clumping;;;clumpNoise;clump noise;0.1;0;1
physical:clumping;;;clumpNoiseTex;clump noise texture;;;
physical:clumping;;;clumpNoiseTexChannel;clump noise texture channel;;;
physical:waveness;;;waveScale;wave scale;0.1;0;10
physical:waveness;;;waveScaleTex;wave scale texture;;;
physical:waveness;;;waveScaleTexChannel;wave scale texture channel;;;
physical:waveness;;;waveScaleNoise;wave scale noise;0.1;0;1
physical:waveness;;;waveStrand;wave strand;0.1;0;1
physical:waveness;;;waveClump;wave clump;0.1;0;1
physical:waveness;;;waveFreq;wave frequency;0.1;1;10
physical:waveness;;;waveFreqTex;wave frequency texture;;;
physical:waveness;;;waveFreqTexChannel;wave frequency texture channel;;;
physical:waveness;;;waveFreqNoise;wave frequency noise;0.1;0;1
physical:waveness;;;waveRootStraighten;wave root straighten;0.1;0;1
material:color;;;rootColor;root color;4;0;255
material:color;;;rootColorTex;root color texture;;;
material:color;;;tipColor;tip color;4;0;255
material:color;;;tipColorTex;tip color texture;;;
material:color;;;rootTipColorWeight;root tip color weight;0.1;0;1
material:color;;;rootTipColorFalloff;root tip color falloff;0.1;0;1
material:color;;;rootAlphaFalloff;root alpha falloff;0.1;0;1
material:color;;;strandTex;strand texture;;;
material:color;;;strandBlendMode;strand blendmode;;;
material:color;;;strandBlendScale;strand blend scale;0.1;0;1
material:color;;;textureBrightness;texture brightness;0.1;0;1
material:color;;;ambientEnvScale;ambient env scale;0.1;0;1
material:diffuse;;;diffuseBlend;diffuse blend;0.1;0;1
material:diffuse;;;diffuseHairNormalWeight;diffuse hair normalweight;0.1;0;1
material:diffuse;;;diffuseScale;diffuse scale;0.1;0;1
material:diffuse;;;diffuseBoneLocalPos;diffuse bonelocalpos;;;
material:diffuse;;;diffuseNoiseScale;diffuse noise scale;;;
material:diffuse;;;diffuseNoiseFreqU;diffuse noise freq U;;;
material:diffuse;;;diffuseNoiseFreqV;diffuse noise freq V;;;
material:diffuse;;;diffuseNoiseGain;diffuse noise gain;;;
material:specular;;;specularColor;specular color;4;0;255
material:specular;;;specularTex;specular texture;;;
material:specular;;;specularPrimary;specular primary;0.1;0;1
material:specular;;;specularPowerPrimary;specular power primary;0.1;1;1000
material:specular;;;specularPrimaryBreakup;specular primary breakup;0.1;0;1
material:specular;;;specularSecondary;specular secondary;0.1;0;1
material:specular;;;specularPowerSecondary;specular power secondary;0.1;1;1000
material:specular;;;specularSecondaryOffset;specular secondary offset;0.1;-1;1
material:specular;;;specularNoiseScale;specular noise scale;0.1;0;1
material:specular;;;specularEnvScale;specular env scale;0.1;0;1
material:glint;;;glintStrength;glint strength;0.1;0;1
material:glint;;;glintCount;glint count;1;1;1024
material:glint;;;glintExponent;glint exponent;0.1;1;16
material:shadow;;;shadowSigma;shadow sigma;0.1;0;2
material:shadow;;;shadowDensityScale;shadow density scale;0.1;0;1
material:shadow;;;castShadows;cast shadows;;;
material:shadow;;;receiveShadows;receive shadows;;;
material:weight;;;materialWeight;material weight;0.1;0;1
;;;autoHideDistance;auto hide distance;1;20;500
level of detail;;;activated;enable LOD: Bool;;;;
level of detail;culling;;useViewfrustrumCulling;use viewfrustrum culling;;;
level of detail;culling;;useBackfaceCulling;use backface culling;;;
level of detail;culling;;backfaceCullingThreshold;backface culling threshold;0.1;-1;1
level of detail;distance;;enableDistanceLOD;enable distance LOD;;;
level of detail;distance;;distanceLODStart;distance LOD start;2;0;1000
level of detail;distance;;distanceLODEnd;distance LOD end;2;0;1000
level of detail;distance;;distanceLODFadeStart;distance LOD fadestart;2;0;1000
level of detail;distance;;distanceLODWidth;distance LOD width;0.1;0;10
level of detail;distance;;distanceLODDensity;distance LOD density;0.1;0;10
level of detail;detail;;enableDetailLOD;enable detail LOD;;;
level of detail;detail;;detailLODStart;detail LOD start;2;0;1000
level of detail;detail;;detailLODEnd;detail LOD end;2;0;1000
level of detail;detail;;detailLODWidth;detail LOD width;0.1;0;10
level of detail;detail;;detailLODDensity;detail LOD density;0.1;0;10
pins;[0];;pins[0].localpos;local pos;-1;-1;-1
pins;[0];;pins[0].radius;radius;-1;-1;-1
pins;[1];;pins[1].localpos;local pos;-1;-1;-1
pins;[1];;pins[1].radius;radius;-1;-1;-1
pins;[2];;pins[2].localpos;local pos;-1;-1;-1
pins;[2];;pins[2].radius;radius;-1;-1;-1
pins;[3];;pins[3].localpos;local pos;-1;-1;-1
pins;[3];;pins[3].radius;radius;-1;-1;-1
pins;[4];;pins[4].localpos;local pos;-1;-1;-1
pins;[4];;pins[4].radius;radius;-1;-1;-1
pins;[5];;pins[5].localpos;local pos;-1;-1;-1
pins;[5];;pins[5].radius;radius;-1;-1;-1
pins;[6];;pins[6].localpos;local pos;-1;-1;-1
pins;[6];;pins[6].radius;radius;-1;-1;-1
pins;[7];;pins[7].localpos;local pos;-1;-1;-1
pins;[7];;pins[7].radius;radius;-1;-1;-1
pins;[8];;pins[8].localpos;local pos;-1;-1;-1
pins;[8];;pins[8].radius;radius;-1;-1;-1
pins;[9];;pins[9].localpos;local pos;-1;-1;-1
pins;[9];;pins[9].radius;radius;-1;-1;-1
bonespheres;[0];;bonesphere[0].localpos;local pos;-1;-1;-1
bonespheres;[0];;bonesphere[0].radius;radius;-1;-1;-1
bonespheres;[1];;bonesphere[1].localpos;local pos;-1;-1;-1
bonespheres;[1];;bonesphere[1].radius;radius;-1;-1;-1
bonespheres;[2];;bonesphere[2].localpos;local pos;-1;-1;-1
bonespheres;[2];;bonesphere[2].radius;radius;-1;-1;-1
bonespheres;[3];;bonesphere[3].localpos;local pos;-1;-1;-1
bonespheres;[3];;bonesphere[3].radius;radius;-1;-1;-1
bonespheres;[4];;bonesphere[4].localpos;local pos;-1;-1;-1
bonespheres;[4];;bonesphere[4].radius;radius;-1;-1;-1
bonespheres;[5];;bonesphere[5].localpos;local pos;-1;-1;-1
bonespheres;[5];;bonesphere[5].radius;radius;-1;-1;-1
bonespheres;[6];;bonesphere[6].localpos;local pos;-1;-1;-1
bonespheres;[6];;bonesphere[6].radius;radius;-1;-1;-1
bonespheres;[7];;bonesphere[7].localpos;local pos;-1;-1;-1
bonespheres;[7];;bonesphere[7].radius;radius;-1;-1;-1
bonespheres;[8];;bonesphere[8].localpos;local pos;-1;-1;-1
bonespheres;[8];;bonesphere[8].radius;radius;-1;-1;-1
bonespheres;[9];;bonesphere[9].localpos;local pos;-1;-1;-1
bonespheres;[9];;bonesphere[9].radius;radius;-1;-1;-1
