;meta[language=en]
; id      |key(hex)|key(str)| text
; -- top level mod stuff
2112111500|        |RADHW_Started|Radish Hairworks UI started
          |        |RADHW_Stopped|Radish Hairworks UI stopped
          |        |RADHW_tQuitConfirm|Radish Hairworks UI
          |        |RADHW_mQuitConfirm|Do you really want to QUIT?
          |        |RADHW_Quit|Quit Radish Hairwork UI Mod.
          |        |RADHW_lListTitle|Hairworks UI
          |        |RADHW_lListElementsDry|Hairworks Settings (dry version)
          |        |RADHW_lListElementsWet|Hairworks Settings (wet version)
          |        |RADHW_lEditValue|Edit value
          |        |RADHW_lFilter|Filter
; -- error msg
          |        |RADHW_eValueParseErr|Failed to parse value!
          |        |RADHW_eReadOnlySetting|Read-only setting cannot be changed.
          |        |RADHW_eOnlyDirectSelection|Value can only be changed by direct edit.
          |        |RADHW_ePreviewAnimFailed|Failed to playback preview animation(s).
          |        |RADHW_eNoWetnessComponent|No wetness parameters for entity without CWetnessComponent.
; -- info msg
          |        |RADHW_iFoundFurries|found (hairworks) entities:
          |        |RADHW_iFurLogged|All fur component values logged into scriptlog.
          |        |RADHW_iFurLogStart|fur component settings
          |        |RADHW_iTimeChanged|changed time to:
          |        |RADHW_iCurrentStepsSize|current stepsize:
          |        |RADHW_iEditCanceled|edit canceled.
          |        |RADHW_iDefinitionLogged|saved parameters into scriptlog.
          |        |RADHW_iDryParameterSetActived|dry parameter set activated.
          |        |RADHW_iWetParameterSetActived|wet parameter set activated.
; -- labels
          |        |RADHW_lGenericValue|value:
          |        |RADHW_lScalarValue|scalar:
          |        |RADHW_lColorValue|color:
          |        |RADHW_lVectorValue|vector:
; -- help
          |        |RADHW_tHelpHotkey|Radish Hairworks UI - Hotkey Help
          |        |RADHW_mGeneralHelp|Select, change and log settings from currently selected Fur-Component interactively. Player control and gametime is frozen as long as the menu is open and settings are adjusted. Note: NO changes will be saved/restored!
          |        |RADHW_ShowHelp|Show this help.
          |        |RADHW_ToggleUi|Toggle UI
          |        |RADHW_Minimize|Minimize Hairworks UI
          |        |RADHW_Quit|Leave interactive mode and restore player control and previous gametime.
          |        |RADHW_ChangeFurComponent|Cycle through available fur components of curren tentity.
          |        |RADHW_PlayAnim|Playback preview animation for actor.
          |        |RADHW_ToggleDryWetParamEditing|Toggle between editing dry and wet version of parameter set.
; setting selection/filtering
          |        |RADHW_SetFilter|Filter settings with wildcard search.
          |        |RADHW_ResetFilter|Reset wildcard filter.
          |        |RADHW_ListCategoryUp|Close currently open settings category.
          |        |RADHW_SelectPrevNext|Select next/previous entry in list.
          |        |RADHW_ToggleEmptyVisibility|Dim/Hide/Show settings that are deactivated or have values.
; value changing
          |        |RADHW_ShowCurrentValue|Show values of currently selected setting.
          |        |RADHW_ChangeValue|Increase/decrease scalar value of setting.
          |        |RADHW_ChangeValueP1|Increase/decrease 1st value (X/R).
          |        |RADHW_ChangeValueP2|Increase/decrease 2nd value (Y/G).
          |        |RADHW_ChangeValueP3|Increase/decrease 3rd value (Z/B).
          |        |RADHW_ChangeValueP4|Increase/decrease 4th value (W/A).
          |        |RADHW_EditCurrentValue|Directly set values of currently selected setting (except boolean).
; stepsize adjustment
          |        |RADHW_ToggleStepSizeChange|Hold pressed to activate stepsize adjustment.
          |        |RADHW_ControlStepSize|Stepsize adjustment: increase/decrease stepsize for value
; direct time adjustment
          |        |RADHW_AdjustTime|Switch to time adjustment mode.
          |        |RADHW_ToggleInteractiveCam|Switch to camera adjustment mode.
; misc
          |        |RADHW_LogValues|Log all hairworks settings into scriptlog.
; generic list settings
          |        |RADHW_TextureTitle|HW UI /
          |        |RADHW_TextureListElements|
          |        |RADHW_NoTextureValue|- empty -
          |        |RADHW_TextureChannelTitle|HW UI /
          |        |RADHW_TextureChannelElements|
          |        |RADHW_BlendModeTitle|HW UI /
          |        |RADHW_BlendModeElements|
;   -- time mode
          |        |RADHW_InteractiveTime|Interactive Time Mode
          |        |RADHW_ToggleInteractiveTime|Switch to interactive time mode
          |        |RADHW_lCurrentTime|Current Time
          |        |RAD_iTimeInteractive|Interactive Time Mode
